{
  "status": "wip",
  "context": {
    "id": "collapsible-0",
    "menu": [
      {
        "title": "Menu 1",
        "link": "#",
        "items": [
          {
            "title": "Submenu 1",
            "link": "#",
            "items": [
              {
                "title": "Submenu 11",
                "link": "#",
                "items": [
                  {
                    "title": "Submenu 111",
                    "link": "#"
                  },
                  {
                    "title": "Submenu 112",
                    "link": "#"
                  },
                  {
                    "title": "Submenu 113",
                    "link": "#"
                  }
                ]
              },
              {
                "title": "Submenu 12",
                "link": "#"
              },
              {
                "title": "Submenu 13",
                "link": "#",
                "items": [
                  {
                    "title": "Submenu 131",
                    "link": "#"
                  },
                  {
                    "title": "Submenu 132",
                    "link": "#"
                  },
                  {
                    "title": "Submenu 133",
                    "link": "#",
                    "items": [
                      {
                        "title": "Submenu 1331",
                        "link": "#"
                      },
                      {
                        "title": "Submenu 1332",
                        "link": "#"
                      },
                      {
                        "title": "Submenu 1333",
                        "link": "#"
                      }
                    ]
                  }
                ]
              }
            ]
          },
          {
            "title": "Submenu 2",
            "link": "#",
            "items": [
              {
                "title": "Submenu 21",
                "link": "#"
              },
              {
                "title": "Submenu 22",
                "link": "#"
              }
            ]
          },
          {
            "title": "Submenu 3",
            "link": "#"
          }
        ]
      },
      {
        "title": "Menu 2",
        "link": "#"
      },
      {
        "title": "Menu 3",
        "link": "#",
        "items": [
          {
            "title": "Submenu 4",
            "link": "#"
          },
          {
            "title": "Submenu 5",
            "link": "#"
          },
          {
            "title": "Submenu 6",
            "link": "#"
          },
          {
            "title": "Submenu 7",
            "link": "#"
          }
        ]
      },
      {
        "title": "Menu 4",
        "link": "#",
        "items": [
          {
            "title": "Submenu 8",
            "link": "#"
          }
        ]
      }
    ]
  }
}
