{
  "status": "wip",
  "preview": "@components-preview",
  "context": {
    "id": "collapsible-burger0",
    "menu": [
      {
        "title": "CollapsibleBurger Menu 1",
        "link": "#",
        "items": [
          {
            "title": "Submenu 1",
            "link": "#",
            "items": [
              {
                "title": "Submenu 11",
                "link": "#"
              },
              {
                "title": "Submenu 12",
                "link": "#"
              },
              {
                "title": "Submenu 13",
                "link": "#"
              }
            ]
          },
          {
            "title": "Submenu 2",
            "link": "#",
            "items": [
              {
                "title": "Submenu 21",
                "link": "#"
              },
              {
                "title": "Submenu 22",
                "link": "#"
              }
            ]
          },
          {
            "title": "Submenu 3",
            "link": "#"
          }
        ]
      },
      {
        "title": "CollapsibleBurger Menu 2",
        "link": "#"
      },
      {
        "title": "CollapsibleBurger Menu 3",
        "link": "#",
        "items": [
          {
            "title": "Submenu 4",
            "link": "#"
          },
          {
            "title": "Submenu 5",
            "link": "#"
          },
          {
            "title": "Submenu 6",
            "link": "#"
          },
          {
            "title": "Submenu 7",
            "link": "#"
          }
        ]
      },
      {
        "title": "CollapsibleBurger Menu 4",
        "link": "#",
        "items": [
          {
            "title": "Submenu 8",
            "link": "#"
          }
        ]
      }
    ]
  }
}
